GlobalRank,TldRank,Domain,TLD,RefSubNets,RefIPs,IDN_Domain,IDN_TLD,PrevGlobalRank,PrevTldRank,PrevRefSubNets,PrevRefIPs
1,1,google.com,com,425408,2668137,google.com,com,1,1,425090,2667852
2,2,facebook.com,com,417266,2792101,facebook.com,com,2,2,416998,2791166

